…
Reads the data for the samples (absorbance)


```r
samples_df <- readxl::read_excel(
  path = here::here(
    "./data-raw/170217 - TNF ELISA.xlsx"),
    sheet = "sample_data")
samples_df
```

```
## # A tibble: 72 x 4
##    treatment               absorbance `repeat` dilution 
##    <chr>                        <dbl>    <dbl> <chr>    
##  1 Jaws + EL4                   0.146        1 undiluted
##  2 Jaws + EL4+ LPS              1.33         1 undiluted
##  3 Jaws + EL4 + Pam2            0.532        1 undiluted
##  4 Jaw + EL4 + Pam3             0.54         1 undiluted
##  5 Jaw + EL4 + CXCL1            0.135        1 undiluted
##  6 Jaw + EL4 + LPS + CXCL1      1.10         1 undiluted
##  7 Jaws + EL4                   0.129        2 undiluted
##  8 Jaws + EL4+ LPS              1.35         2 undiluted
##  9 Jaws + EL4 + Pam2            0.462        2 undiluted
## 10 Jaw + EL4 + Pam3             0.52         2 undiluted
## # ... with 62 more rows
```
…
## Add predicted conc to samples data


```r
  samples_df <- samples_df %>%
    mutate(conc = predicted$Estimate) %>%
    mutate(dilution = fct_recode(as_factor(dilution),
          "1" = "undiluted",
          "5" = "5",
          "10" = "10")) %>%
    print()
```

```
## # A tibble: 72 x 5
##    treatment               absorbance `repeat` dilution   conc
##    <chr>                        <dbl>    <dbl> <fct>     <dbl>
##  1 Jaws + EL4                   0.146        1 1        0.0472
##  2 Jaws + EL4+ LPS              1.33         1 1        2.78  
##  3 Jaws + EL4 + Pam2            0.532        1 1        0.577 
##  4 Jaw + EL4 + Pam3             0.54         1 1        0.590 
##  5 Jaw + EL4 + CXCL1            0.135        1 1        0.0331
##  6 Jaw + EL4 + LPS + CXCL1      1.10         1 1        1.84  
##  7 Jaws + EL4                   0.129        2 1        0.0253
##  8 Jaws + EL4+ LPS              1.35         2 1        2.89  
##  9 Jaws + EL4 + Pam2            0.462        2 1        0.469 
## 10 Jaw + EL4 + Pam3             0.52         2 1        0.558 
## # ... with 62 more rows
```
…
```r
samples_df
```

```
## # A tibble: 72 x 5
##    treatment               absorbance `repeat` dilution   conc
##    <chr>                        <dbl>    <dbl> <fct>     <dbl>
##  1 Jaws + EL4                   0.146        1 1        0.0472
##  2 Jaws + EL4+ LPS              1.33         1 1        2.78  
##  3 Jaws + EL4 + Pam2            0.532        1 1        0.577 
##  4 Jaw + EL4 + Pam3             0.54         1 1        0.590 
##  5 Jaw + EL4 + CXCL1            0.135        1 1        0.0331
##  6 Jaw + EL4 + LPS + CXCL1      1.10         1 1        1.84  
##  7 Jaws + EL4                   0.129        2 1        0.0253
##  8 Jaws + EL4+ LPS              1.35         2 1        2.89  
##  9 Jaws + EL4 + Pam2            0.462        2 1        0.469 
## 10 Jaw + EL4 + Pam3             0.52         2 1        0.558 
## # ... with 62 more rows
```
…
